Le blog de Statoscop
…
À la sortie de la mise à jour de dplyr, il avait été signalé que la méthode across() impliquerait peut-être de légères pertes en termes de vitesse d'exécution par rapport aux anciennes méthodes _at, _if et _all. On a mis en évidence ce problème avec la version 1.0.2 de dplyr dans la première version de cet article. Sur ce même modèle, on va comparer les instructions _if et _at d'un summarise groupé avec leurs équivalents dans across() pour différentes tailles d'échantillons et de groupes.   

Instructions sur lesquelles on compare les méthodes

On crée un tibble comportant 4 variables numériques et une variable facteur, et on va comparer la vitesse d'exécution des moyennes de ces variables numériques groupées par modalité de la variable facteur en faisant varier le nombre de lignes du tibble et le nombre de groupes (de modalités distinctes de la variable facteur). Le tibble est créé par exemple ainsi, pour 100 lignes et deux groupes :  

nbrow <- 100
nbgpe <- 2
as_tibble(data.frame(x1 = rnorm(nbrow), x2 =  rnorm(nbrow), 
                     x3 = runif(nbrow), x4 = runif(nbrow),
                     y = as.factor(sample(floor(nbgpe), replace = TRUE))
                               )) %>% 
  arrange(x1) %>% 
  mutate(across(where(is.numeric), ~ round(., 2)))
## # A tibble: 100 x 5
##       x1    x2    x3    x4 y    
##    <dbl> <dbl> <dbl> <dbl> <fct>
##  1 -3.36  0.9   0.32  0.36 2    
##  2 -3.04  0.92  0.61  0.46 2    
##  3 -2.4   1.37  0.32  0.98 2    
##  4 -2.08  1.64  0.87  0.72 2    
##  5 -2.05  1.22  0.62  0.79 2    
##  6 -1.78 -1.28  0.58  0.31 2    
##  7 -1.56  1.19  0.96  0.58 2    
##  8 -1.55 -1.18  0.4   0.85 2    
##  9 -1.47  1.77  0.71  0.21 2    
## 10 -1.29 -0.6   0.68  0.4  2    
## # … with 90 more rows
…
